\select@language {brazil}
\contentsline {section}{\numberline {1}Introdu\c {c}\IeC {\~a}o}{2}
\contentsline {section}{\numberline {2}Selection Sort}{2}
\contentsline {section}{\numberline {3}Merge Sort}{3}
\contentsline {section}{\numberline {4}Diferen\c {c}as}{3}
\contentsline {section}{\numberline {5}Conclus\IeC {\~a}o}{3}
\contentsline {section}{\numberline {6}Refer\^{e}ncias}{3}
